name,sortdesc,description,price,spacel_price,descount,reletedproduct,product_color,size,product_brand,image,product_stock
awdhesh,bewebdeveloper@gmail.com,622334455,27,5,8%,gggg,gggg,ttttt,yyy,,
vikram,paul@domain.com,655443321,22,,,,,,,,
sanddep,rachid@domain.com,667543298,25,,,,,,,,
vijay,christien@domain.com,643213489,32,,,,,,,,
rakesh,vladimir@domain.com,678563412,40,,,,,,,,
ccccccccc,aaaaaaaaa,ttttttttttt,yyyyyyyyyyyyy,,,,,,,,
